
"#","كود الجهاز","الاسم","رقم الموديل","القسم","الغرفة"
"1","AKU1286","","B650","","DIALYSIS"
"2","AKU1420","","4008B","","4008B"
"3","AKU199","","4008S","","DIALYSIS"
"4","AKU1386","","B650","","DIALYSIS"
"5","AKU202","","4008S","","DIALYSIS"
"6","AKU839","","CARE VISION VS110","","DIALYSIS"
"7","AMB115","","LTV1200","","DIALYSIS"
"8","AMB363","","OMNI II","","DIALYSIS"
"9","AMB367","","AED PLUS","","DIALYSIS"